<?xml version="1.0" encoding="UTF-8" standalone="no"?>
<!-- Created with Inkscape (http://www.inkscape.org/) -->

<svg
   xmlns:osb="http://www.openswatchbook.org/uri/2009/osb"
   xmlns:dc="http://purl.org/dc/elements/1.1/"
   xmlns:cc="http://creativecommons.org/ns#"
   xmlns:rdf="http://www.w3.org/1999/02/22-rdf-syntax-ns#"
   xmlns:svg="http://www.w3.org/2000/svg"
   xmlns="http://www.w3.org/2000/svg"
   xmlns:sodipodi="http://sodipodi.sourceforge.net/DTD/sodipodi-0.dtd"
   xmlns:inkscape="http://www.inkscape.org/namespaces/inkscape"
   width="210mm"
   height="297mm"
   viewBox="0 0 210 297"
   version="1.1"
   id="svg8"
   inkscape:version="0.92.3 (2405546, 2018-03-11)"
   sodipodi:docname="baby.svg"
   inkscape:export-filename="C:\Users\bdemo\Projects\Games\BouncingBabies\Assets\baby.png"
   inkscape:export-xdpi="96"
   inkscape:export-ydpi="96">
  <title
     id="title6224">Baby</title>
  <defs
     id="defs2">
    <linearGradient
       id="linearGradient6214"
       osb:paint="solid">
      <stop
         style="stop-color:#ffb598;stop-opacity:1;"
         offset="0"
         id="stop6212" />
    </linearGradient>
  </defs>
  <sodipodi:namedview
     id="base"
     pagecolor="#ffffff"
     bordercolor="#666666"
     borderopacity="1.0"
     inkscape:pageopacity="0.0"
     inkscape:pageshadow="2"
     inkscape:zoom="9.6427829"
     inkscape:cx="-1013.7254"
     inkscape:cy="1378.8054"
     inkscape:document-units="mm"
     inkscape:current-layer="layer1"
     showgrid="false"
     showborder="false"
     inkscape:window-width="1920"
     inkscape:window-height="1137"
     inkscape:window-x="-8"
     inkscape:window-y="-8"
     inkscape:window-maximized="1" />
  <metadata
     id="metadata5">
    <rdf:RDF>
      <cc:Work
         rdf:about="">
        <dc:format>image/svg+xml</dc:format>
        <dc:type
           rdf:resource="http://purl.org/dc/dcmitype/StillImage" />
        <dc:title>Baby</dc:title>
      </cc:Work>
    </rdf:RDF>
  </metadata>
  <g
     inkscape:label="Layer 1"
     inkscape:groupmode="layer"
     id="layer1">
    <ellipse
       style="fill:#ffb598;fill-opacity:0.70666665;stroke:#000000;stroke-width:0.18952686;stroke-miterlimit:4;stroke-dasharray:none;stroke-opacity:1"
       id="path4688"
       ry="9.3085899"
       rx="7.9045"
       cy="-67.764732"
       cx="-269.25381"
       inkscape:export-xdpi="96"
       inkscape:export-ydpi="96" />
    <g
       id="g4754"
       style="fill:#ffffff;fill-opacity:1"
       inkscape:export-xdpi="96"
       inkscape:export-ydpi="96"
       transform="matrix(3.790537,0,0,3.790537,751.36273,188.90128)">
      <ellipse
         ry="0.15091166"
         rx="0.48017344"
         cy="-68.645218"
         cx="-270.04953"
         id="path4692"
         style="fill:#ffffff;fill-opacity:1;stroke:#000000;stroke-width:0.05;stroke-miterlimit:4;stroke-dasharray:none;stroke-opacity:1" />
      <ellipse
         style="fill:#ffffff;fill-opacity:1;stroke:#000000;stroke-width:0.05;stroke-miterlimit:4;stroke-dasharray:none;stroke-opacity:1"
         id="ellipse4694"
         cx="-268.38953"
         cy="-68.645218"
         rx="0.48017344"
         ry="0.15091166" />
    </g>
    <ellipse
       style="fill:#000000;fill-opacity:0.83999999;stroke:#000000;stroke-width:0.18952686;stroke-miterlimit:4;stroke-dasharray:none;stroke-opacity:1"
       id="path4696"
       cx="-269.25381"
       cy="-64.800568"
       rx="4.3162732"
       ry="2.0801318"
       inkscape:export-xdpi="96"
       inkscape:export-ydpi="96" />
    <ellipse
       style="fill:#000000;fill-opacity:0.83999999;stroke:#000000;stroke-width:0.18952686;stroke-miterlimit:4;stroke-dasharray:none;stroke-opacity:1"
       id="path4714"
       cx="-269.8779"
       cy="-68.440781"
       rx="0.52003294"
       ry="0.26001647"
       inkscape:export-xdpi="96"
       inkscape:export-ydpi="96" />
    <ellipse
       ry="0.26001647"
       rx="0.52003294"
       cy="-68.440781"
       cx="-268.57779"
       id="ellipse4716"
       style="fill:#000000;fill-opacity:0.83999999;stroke:#000000;stroke-width:0.18952686;stroke-miterlimit:4;stroke-dasharray:none;stroke-opacity:1"
       inkscape:export-xdpi="96"
       inkscape:export-ydpi="96" />
    <g
       id="g4750"
       inkscape:export-xdpi="96"
       inkscape:export-ydpi="96"
       transform="matrix(3.790537,0,0,3.790537,751.36273,188.90128)">
      <path
         sodipodi:nodetypes="cc"
         inkscape:connector-curvature="0"
         id="path4726"
         d="m -270.09071,-69.454656 c 0,0 -0.0274,-0.631085 -0.26066,-0.672243"
         style="fill:none;stroke:#000000;stroke-width:0.02;stroke-linecap:butt;stroke-linejoin:miter;stroke-miterlimit:4;stroke-dasharray:none;stroke-opacity:1" />
      <path
         style="fill:none;stroke:#000000;stroke-width:0.02;stroke-linecap:butt;stroke-linejoin:miter;stroke-miterlimit:4;stroke-dasharray:none;stroke-opacity:1"
         d="m -270.35138,-69.276306 c 0,0 -0.0274,-0.631085 -0.26066,-0.672243"
         id="path4728"
         inkscape:connector-curvature="0"
         sodipodi:nodetypes="cc" />
      <path
         sodipodi:nodetypes="cc"
         inkscape:connector-curvature="0"
         id="path4730"
         d="m -268.4444,-69.633006 c 0,0 -0.0274,-0.631085 -0.26066,-0.672243"
         style="fill:none;stroke:#000000;stroke-width:0.02;stroke-linecap:butt;stroke-linejoin:miter;stroke-miterlimit:4;stroke-dasharray:none;stroke-opacity:1" />
      <path
         style="fill:none;stroke:#000000;stroke-width:0.02;stroke-linecap:butt;stroke-linejoin:miter;stroke-miterlimit:4;stroke-dasharray:none;stroke-opacity:1"
         d="m -269.07549,-69.729041 c 0,0 -0.0274,-0.631085 -0.26066,-0.672243"
         id="path4732"
         inkscape:connector-curvature="0"
         sodipodi:nodetypes="cc" />
      <path
         sodipodi:nodetypes="cc"
         inkscape:connector-curvature="0"
         id="path4734"
         d="m -269.1578,-69.372341 c 0,0 -0.0274,-0.631085 -0.26066,-0.672243"
         style="fill:none;stroke:#000000;stroke-width:0.02;stroke-linecap:butt;stroke-linejoin:miter;stroke-miterlimit:4;stroke-dasharray:none;stroke-opacity:1" />
      <path
         style="fill:none;stroke:#000000;stroke-width:0.02;stroke-linecap:butt;stroke-linejoin:miter;stroke-miterlimit:4;stroke-dasharray:none;stroke-opacity:1"
         d="m -268.74623,-69.536972 c 0,0 -0.0274,-0.631085 -0.26066,-0.672243"
         id="path4736"
         inkscape:connector-curvature="0"
         sodipodi:nodetypes="cc" />
      <path
         sodipodi:nodetypes="cc"
         inkscape:connector-curvature="0"
         id="path4738"
         d="m -269.59682,-69.729041 c 0,0 -0.0274,-0.631085 -0.26066,-0.672243"
         style="fill:none;stroke:#000000;stroke-width:0.02;stroke-linecap:butt;stroke-linejoin:miter;stroke-miterlimit:4;stroke-dasharray:none;stroke-opacity:1" />
      <path
         style="fill:none;stroke:#000000;stroke-width:0.02;stroke-linecap:butt;stroke-linejoin:miter;stroke-miterlimit:4;stroke-dasharray:none;stroke-opacity:1"
         d="m -269.74773,-69.482094 c 0,0 -0.0274,-0.631085 -0.26066,-0.672243"
         id="path4740"
         inkscape:connector-curvature="0"
         sodipodi:nodetypes="cc" />
    </g>
    <circle
       style="fill:#4e4633;fill-opacity:1;stroke:#000000;stroke-width:0.07581074;stroke-miterlimit:4;stroke-dasharray:none;stroke-opacity:1"
       id="path6220"
       cx="-272.06201"
       cy="-71.040962"
       r="0.26001647"
       inkscape:export-xdpi="96"
       inkscape:export-ydpi="96" />
    <circle
       r="0.26001647"
       cy="-71.092957"
       cx="-265.97769"
       id="circle6222"
       style="fill:#4e4633;fill-opacity:1;stroke:#000000;stroke-width:0.07581074;stroke-miterlimit:4;stroke-dasharray:none;stroke-opacity:1"
       inkscape:export-xdpi="96"
       inkscape:export-ydpi="96" />
  </g>
</svg>
